  Loading gcc/8.2.0
  Loading openmpi/3.1.1 for compiler gcc-8.2.0
  Loading gcc/8.2.0
  Loading openmpi/3.1.1 for compiler gcc-8.2.0
  Unloading openmpi/3.1.1 for compiler gcc-8.2.0
  Unloading gcc/8.2.0
